<?xml version="1.0" encoding="utf-8"?>
<!-- Generator: Adobe Illustrator 21.1.0, SVG Export Plug-In . SVG Version: 6.00 Build 0)  -->
<!DOCTYPE svg PUBLIC "-//W3C//DTD SVG 1.1//EN" "http://www.w3.org/Graphics/SVG/1.1/DTD/svg11.dtd">
<svg version="1.1" id="Layer_1" xmlns="http://www.w3.org/2000/svg" xmlns:xlink="http://www.w3.org/1999/xlink" x="0px" y="0px"
	 viewBox="0 0 37.7 37.7" style="enable-background:new 0 0 37.7 37.7;" xml:space="preserve">
<style type="text/css">
	.st0{fill:#EB7A7A;}
	.st1{fill:#FFF8F8;}
</style>
<circle class="st0" cx="18.8" cy="18.8" r="18.7"/>
<g>
	<path class="st1" d="M18.8,11.4h1.7c0.3,0,0.6-0.3,0.6-0.6s-0.3-0.6-0.6-0.6h-1.7c-0.3,0-0.6,0.3-0.6,0.6S18.4,11.4,18.8,11.4z"/>
	<path class="st1" d="M20.5,15.3c0.3,0,0.6-0.3,0.6-0.6S20.9,14,20.5,14h-1.7c-0.3,0-0.6,0.3-0.6,0.6s0.3,0.6,0.6,0.6L20.5,15.3
		L20.5,15.3z"/>
	<path class="st1" d="M28.3,16.2C28.2,16.1,28,16,27.9,16l0,0h-4.1V7.5c0-0.2-0.1-0.3-0.2-0.5c-0.1-0.1-0.3-0.2-0.4-0.2H11.6
		c-0.2,0-0.3,0.1-0.4,0.2C11,7.1,11,7.3,11,7.5v23.3c0,0.3,0.3,0.6,0.6,0.6h8.1h0.1h8.1c0.2,0,0.3-0.1,0.4-0.2s0.2-0.3,0.2-0.5v-14
		C28.5,16.5,28.4,16.4,28.3,16.2z M12.2,8.1h10.4v8h-2.8c-0.2,0-0.3,0.1-0.4,0.2s-0.2,0.3-0.2,0.5v13.4h-6.9L12.2,8.1L12.2,8.1z
		 M22.8,22.9h-1.3c-0.3,0-0.6-0.3-0.6-0.6s0.3-0.6,0.6-0.6h1.3c0.3,0,0.6,0.3,0.6,0.6S23.1,22.9,22.8,22.9z M22.8,20.1h-1.3
		c-0.3,0-0.6-0.3-0.6-0.6s0.3-0.6,0.6-0.6h1.3c0.3,0,0.6,0.3,0.6,0.6S23.1,20.1,22.8,20.1z M26.2,22.9H25c-0.3,0-0.6-0.3-0.6-0.6
		s0.3-0.6,0.6-0.6h1.3c0.3,0,0.6,0.3,0.6,0.6S26.6,22.9,26.2,22.9z M26.2,20.1H25c-0.3,0-0.6-0.3-0.6-0.6s0.3-0.6,0.6-0.6h1.3
		c0.3,0,0.6,0.3,0.6,0.6S26.6,20.1,26.2,20.1z"/>
</g>
</svg>
