<?xml version="1.0" encoding="utf-8"?>
<!-- Generator: Adobe Illustrator 21.1.0, SVG Export Plug-In . SVG Version: 6.00 Build 0)  -->
<!DOCTYPE svg PUBLIC "-//W3C//DTD SVG 1.1//EN" "http://www.w3.org/Graphics/SVG/1.1/DTD/svg11.dtd">
<svg version="1.1" id="Layer_1" xmlns="http://www.w3.org/2000/svg" xmlns:xlink="http://www.w3.org/1999/xlink" x="0px" y="0px"
	 viewBox="0 0 37.7 37.7" style="enable-background:new 0 0 37.7 37.7;" xml:space="preserve">
<style type="text/css">
	.st0{fill:#CDCDCD;}
	.st1{fill:#FFFFFF;}
</style>
<circle class="st0" cx="18.8" cy="18.8" r="18.7"/>
<g>
	<path class="st1" d="M24.3,14.6c-3-3.4-10-3.2-10.5-0.4c-0.4,2.3,2,3.6,3.2,4.8c1.3,1.4,1.6,3.6,0.5,5.1c-0.5,0.6-3.2,3.4-2.4,6.1
		c0.4,1.4,1.3,2,2.6,2.3c4,0.8,4.5-2.4,4.5-3.8c0-1.3,0.2-2.6,0.8-3.8C24.2,21.7,26.3,16.9,24.3,14.6z"/>
	<path class="st1" d="M23.1,10.8c0.4,0,0.8-0.4,0.8-1c0-0.6-0.2-1.1-0.6-1.1c-0.4,0-0.8,0.4-0.8,1C22.4,10.3,22.7,10.8,23.1,10.8z"
		/>
	<path class="st1" d="M21.3,10.1c0.5,0,0.9-0.7,0.9-1.5c0-0.8-0.5-1.4-1.1-1.4c-0.5,0-0.9,0.7-0.9,1.5C20.3,9.5,20.8,10.2,21.3,10.1
		z"/>
	<path class="st1" d="M24.5,12c0.3,0,0.6-0.3,0.6-0.8c0-0.5-0.2-0.9-0.5-0.9c-0.3,0-0.6,0.3-0.6,0.8C23.9,11.6,24.1,12,24.5,12z"/>
	<path class="st1" d="M16.1,7.5c-0.2-1.4-1.2-2.4-2.1-2.3C13,5.4,12.4,6.6,12.7,8c0.2,1.4,1.2,2.4,2.1,2.3
		C15.7,10.2,16.3,9,16.1,7.5z"/>
	<path class="st1" d="M18.3,9.8c0.7,0,1.1-0.9,1.1-1.9c-0.1-1-0.6-1.8-1.3-1.7C17.5,6.2,17,7,17,8C17.1,9,17.7,9.8,18.3,9.8z"/>
</g>
</svg>
