<?xml version="1.0" encoding="utf-8"?>
<!-- Generator: Adobe Illustrator 21.1.0, SVG Export Plug-In . SVG Version: 6.00 Build 0)  -->
<!DOCTYPE svg PUBLIC "-//W3C//DTD SVG 1.1//EN" "http://www.w3.org/Graphics/SVG/1.1/DTD/svg11.dtd">
<svg version="1.1" id="Layer_1" xmlns="http://www.w3.org/2000/svg" xmlns:xlink="http://www.w3.org/1999/xlink" x="0px" y="0px"
	 viewBox="0 0 37.7 37.7" style="enable-background:new 0 0 37.7 37.7;" xml:space="preserve">
<style type="text/css">
	.st0{fill:#08DBDD;}
	.st1{fill:#FFFFFF;}
</style>
<circle class="st0" cx="18.8" cy="18.8" r="18.7"/>
<g>
	<polygon class="st1" points="29.3,9.6 27.7,9.6 27.3,9.6 27.2,10.1 24.8,27.5 24.8,28.1 25.3,28.1 29.3,28.1 29.8,28.1 29.8,27.6 
		29.8,10.1 29.8,9.6 	"/>
	<path class="st1" d="M26.5,10.6H12.4v-1H9.6H9.2V10L6.9,27.5V28h17.3v-0.4L26.5,11C26.5,11,26.5,10.6,26.5,10.6z M12.6,27v0.3h-4
		V27c0.2-2.7,0.6-5.3,1.4-7.9c0.3-1.1,0.8-2.2,1.3-3.3c0.4-0.8,0.9-1.6,1.4-2.3h1.9V13h-2.2v-1h3.2v3.3h-0.9v-1.8l-0.1,0.3
		c-0.8,2.2-1.4,4.5-1.7,6.8C12.5,22.7,12.4,24.9,12.6,27z M17.1,27v0.3h-4V27c0.2-2.7,0.6-5.3,1.4-7.9c0.3-1.1,0.8-2.2,1.3-3.3
		c0.4-0.8,0.9-1.6,1.4-2.3h1.9V13h-2.2v-1h3.2v3.3h-0.9v-1.7L19,13.8c-0.8,2.2-1.4,4.5-1.7,6.8C17,22.7,17,24.9,17.1,27z M24.5,15.3
		h-0.9v-1.4c-0.8,2.2-1.4,4.4-1.7,6.7c-0.3,2.1-0.4,4.3-0.2,6.4v0.3h-4V27c0.2-2.7,0.6-5.3,1.4-7.9c0.3-1.1,0.8-2.2,1.3-3.3
		c0.4-0.8,0.9-1.6,1.4-2.3l1.8,0.1V13h-2.2v-1h3.1C24.5,12,24.5,15.3,24.5,15.3z"/>
	<polygon class="st1" points="19.2,13.5 19.1,13.5 19.1,13.6 	"/>
	<polygon class="st1" points="23.6,13.6 23.6,13.9 23.7,13.6 	"/>
</g>
</svg>
